{
    "page": 1,
    "per_page": 15,
    "media": [
        {
            "type": "Photo",
            "id": 66625,
            "width": 5184,
            "height": 2916,
            "url": "https://www.pexels.com/photo/bee-on-red-and-purple-flower-66625/",
            "photographer": "Matthias Zomer",
            "photographer_url": "https://www.pexels.com/@matthiaszomer",
            "photographer_id": 14355,
            "avg_color": "#876070",
            "src": {
                "original": "https://images.pexels.com/photos/66625/pexels-photo-66625.jpeg",
                "large2x": "https://images.pexels.com/photos/66625/pexels-photo-66625.jpeg?auto=compress\u0026cs=tinysrgb\u0026dpr=2\u0026h=650\u0026w=940",
                "large": "https://images.pexels.com/photos/66625/pexels-photo-66625.jpeg?auto=compress\u0026cs=tinysrgb\u0026h=650\u0026w=940",
                "medium": "https://images.pexels.com/photos/66625/pexels-photo-66625.jpeg?auto=compress\u0026cs=tinysrgb\u0026h=350",
                "small": "https://images.pexels.com/photos/66625/pexels-photo-66625.jpeg?auto=compress\u0026cs=tinysrgb\u0026h=130",
                "portrait": "https://images.pexels.com/photos/66625/pexels-photo-66625.jpeg?auto=compress\u0026cs=tinysrgb\u0026fit=crop\u0026h=1200\u0026w=800",
                "landscape": "https://images.pexels.com/photos/66625/pexels-photo-66625.jpeg?auto=compress\u0026cs=tinysrgb\u0026fit=crop\u0026h=627\u0026w=1200",
                "tiny": "https://images.pexels.com/photos/66625/pexels-photo-66625.jpeg?auto=compress\u0026cs=tinysrgb\u0026dpr=1\u0026fit=crop\u0026h=200\u0026w=280"
            },
            "liked": false,
            "alt": "Bee on Red and Purple Flower"
        },
        {
            "type": "Video",
            "id": 854242,
            "width": 1920,
            "height": 1080,
            "duration": 21,
            "full_res": null,
            "tags": [],
            "url": "https://www.pexels.com/video/bee-pollinating-854242/",
            "image": "https://images.pexels.com/videos/854242/free-video-854242.jpg?auto=compress\u0026cs=tinysrgb\u0026fit=crop\u0026h=630\u0026w=1200",
            "avg_color": null,
            "user": {
                "id": 2659,
                "name": "Pixabay",
                "url": "https://www.pexels.com/@pixabay"
            },
            "video_files": [
                {
                    "id": 9252358,
                    "quality": "hd",
                    "file_type": "video/mp4",
                    "width": 1920,
                    "height": 1080,
                    "fps": 29.97,
                    "link": "https://videos.pexels.com/video-files/854242/854242-hd_1920_1080_30fps.mp4",
                    "size": 12171830
                },
                {
                    "id": 9252407,
                    "quality": "sd",
                    "file_type": "video/mp4",
                    "width": 960,
                    "height": 540,
                    "fps": 29.97,
                    "link": "https://videos.pexels.com/video-files/854242/854242-sd_960_540_30fps.mp4",
                    "size": 4401747
                },
                {
                    "id": 9252474,
                    "quality": "hd",
                    "file_type": "video/mp4",
                    "width": 1280,
                    "height": 720,
                    "fps": 29.97,
                    "link": "https://videos.pexels.com/video-files/854242/854242-hd_1280_720_30fps.mp4",
                    "size": 7056481
                },
                {
                    "id": 9252645,
                    "quality": "sd",
                    "file_type": "video/mp4",
                    "width": 640,
                    "height": 360,
                    "fps": 29.97,
                    "link": "https://videos.pexels.com/video-files/854242/854242-sd_640_360_30fps.mp4",
                    "size": 1590784
                }
            ],
            "video_pictures": [
                {
                    "id": 5896,
                    "nr": 0,
                    "picture": "https://images.pexels.com/videos/854242/pictures/preview-0.jpg"
                },
                {
                    "id": 5897,
                    "nr": 1,
                    "picture": "https://images.pexels.com/videos/854242/pictures/preview-1.jpg"
                },
                {
                    "id": 5898,
                    "nr": 2,
                    "picture": "https://images.pexels.com/videos/854242/pictures/preview-2.jpg"
                },
                {
                    "id": 5899,
                    "nr": 3,
                    "picture": "https://images.pexels.com/videos/854242/pictures/preview-3.jpg"
                },
                {
                    "id": 5900,
                    "nr": 4,
                    "picture": "https://images.pexels.com/videos/854242/pictures/preview-4.jpg"
                },
                {
                    "id": 5901,
                    "nr": 5,
                    "picture": "https://images.pexels.com/videos/854242/pictures/preview-5.jpg"
                },
                {
                    "id": 5902,
                    "nr": 6,
                    "picture": "https://images.pexels.com/videos/854242/pictures/preview-6.jpg"
                },
                {
                    "id": 5903,
                    "nr": 7,
                    "picture": "https://images.pexels.com/videos/854242/pictures/preview-7.jpg"
                },
                {
                    "id": 5904,
                    "nr": 8,
                    "picture": "https://images.pexels.com/videos/854242/pictures/preview-8.jpg"
                },
                {
                    "id": 5905,
                    "nr": 9,
                    "picture": "https://images.pexels.com/videos/854242/pictures/preview-9.jpg"
                },
                {
                    "id": 5906,
                    "nr": 10,
                    "picture": "https://images.pexels.com/videos/854242/pictures/preview-10.jpg"
                },
                {
                    "id": 5907,
                    "nr": 11,
                    "picture": "https://images.pexels.com/videos/854242/pictures/preview-11.jpg"
                },
                {
                    "id": 5908,
                    "nr": 12,
                    "picture": "https://images.pexels.com/videos/854242/pictures/preview-12.jpg"
                },
                {
                    "id": 5909,
                    "nr": 13,
                    "picture": "https://images.pexels.com/videos/854242/pictures/preview-13.jpg"
                },
                {
                    "id": 5910,
                    "nr": 14,
                    "picture": "https://images.pexels.com/videos/854242/pictures/preview-14.jpg"
                }
            ]
        }
    ],
    "total_results": 65,
    "next_page": "https://api.pexels.com/v1/collections/9j7p6tj/?page=2&per_page=15",
    "id": "9j7p6tj"
}
