{
    "page": 2,
    "per_page": 1,
    "photos": [
        {
            "id": 1547813,
            "width": 3795,
            "height": 5693,
            "url": "https://www.pexels.com/photo/red-trees-1547813/",
            "photographer": "Artem Saranin",
            "photographer_url": "https://www.pexels.com/@arts",
            "photographer_id": 359504,
            "avg_color": "#4B3536",
            "src": {
                "original": "https://images.pexels.com/photos/1547813/pexels-photo-1547813.jpeg",
                "large2x": "https://images.pexels.com/photos/1547813/pexels-photo-1547813.jpeg?auto=compress&cs=tinysrgb&dpr=2&h=650&w=940",
                "large": "https://images.pexels.com/photos/1547813/pexels-photo-1547813.jpeg?auto=compress&cs=tinysrgb&h=650&w=940",
                "medium": "https://images.pexels.com/photos/1547813/pexels-photo-1547813.jpeg?auto=compress&cs=tinysrgb&h=350",
                "small": "https://images.pexels.com/photos/1547813/pexels-photo-1547813.jpeg?auto=compress&cs=tinysrgb&h=130",
                "portrait": "https://images.pexels.com/photos/1547813/pexels-photo-1547813.jpeg?auto=compress&cs=tinysrgb&fit=crop&h=1200&w=800",
                "landscape": "https://images.pexels.com/photos/1547813/pexels-photo-1547813.jpeg?auto=compress&cs=tinysrgb&fit=crop&h=627&w=1200",
                "tiny": "https://images.pexels.com/photos/1547813/pexels-photo-1547813.jpeg?auto=compress&cs=tinysrgb&dpr=1&fit=crop&h=200&w=280"
            },
            "liked": false,
            "alt": "Red Trees"
        }
    ],
    "total_results": 8000,
    "next_page": "https://api.pexels.com/v1/search/?page=3&per_page=1&query=nature",
    "prev_page": "https://api.pexels.com/v1/search/?page=1&per_page=1&query=nature"
}
